<?xml version="1.0" standalone="no"?>
<!DOCTYPE svg PUBLIC "-//W3C//DTD SVG 1.1//EN" "http://www.w3.org/Graphics/SVG/1.1/DTD/svg11.dtd" >
<svg xmlns="http://www.w3.org/2000/svg">
<metadata>
This is a custom SVG webfont generated by Font Squirrel.
Copyright   : Copyright 19901998 Bitstream Inc  All rights reserved
</metadata>
<defs>
<font id="NewsGothBdXCnBTBold" horiz-adv-x="815" >
<font-face units-per-em="2048" ascent="1556" descent="-492" />
<missing-glyph horiz-adv-x="408" />
<glyph unicode=" "  horiz-adv-x="408" />
<glyph unicode="&#x09;" horiz-adv-x="408" />
<glyph unicode="&#xa0;" horiz-adv-x="408" />
<glyph unicode="!" horiz-adv-x="483" d="M115 1481h254l-58 -1063h-141zM129 0v236h223v-236h-223z" />
<glyph unicode="&#x22;" horiz-adv-x="614" d="M90 881v555h139v-555h-139zM385 881v555h139v-555h-139z" />
<glyph unicode="#" horiz-adv-x="1575" d="M88 449l53 147h310l92 262h-330l51 146h332l162 454h166l-162 -454h256l164 454h164l-160 -454h301l-51 -146h-303l-93 -262h322l-51 -147h-322l-162 -453h-165l161 453h-258l-162 -453h-165l159 453h-309zM616 594h261l92 264h-260z" />
<glyph unicode="$" d="M76 174l121 148q43 -67 85.5 -98t88.5 -31v477q-155 109 -224 215.5t-69 232.5q0 149 78.5 244t214.5 108v166h106v-163q89 -14 155 -51t105 -95l-116 -147q-31 49 -66 76t-77 34l-1 -430q149 -110 220 -226t71 -249q0 -152 -75 -249t-216 -128v-219h-106v219 q-97 11 -171 52.5t-124 113.5zM274 1122q0 -62 25 -110t72 -78v348q-48 -16 -72.5 -56.5t-24.5 -103.5zM477 193q49 21 73.5 67t24.5 117q0 67 -24 121.5t-74 101.5v-407z" />
<glyph unicode="%" horiz-adv-x="1507" d="M55 1174q0 139 98 237t238 98t238 -98t98 -237q0 -140 -98 -238t-238 -98t-238 98t-98 238zM236 1174q0 -65 44.5 -109.5t110.5 -44.5t111 44.5t45 109.5q0 64 -46 110.5t-110 46.5q-65 0 -110 -46t-45 -111zM272 -29l818 1522h145l-815 -1522h-148zM782 307 q0 140 98 238t238 98t238 -98t98 -238t-98 -238t-238 -98t-238 98t-98 238zM963 307q0 -65 44.5 -110t110.5 -45t111 45t45 110t-45.5 110.5t-110.5 45.5t-110 -45t-45 -111z" />
<glyph unicode="&#x26;" horiz-adv-x="905" d="M86 348q0 111 42 206t134 191q-56 113 -85.5 220t-29.5 200q0 155 78.5 247.5t208.5 92.5q128 0 204.5 -84t76.5 -225q0 -93 -54.5 -202.5t-179.5 -262.5q32 -75 73.5 -153t92.5 -156q15 59 26 125t19 139l191 -39q-17 -124 -45.5 -221.5t-67.5 -165.5q24 -27 51 -48.5 t58 -37.5l-1 -207q-69 10 -125.5 43t-99.5 90q-39 -59 -102.5 -92t-138.5 -33q-155 0 -240.5 98t-85.5 275zM283 369q0 -85 40 -139t101 -54q31 0 56.5 14.5t49.5 45.5q-59 75 -105.5 160t-82.5 182q-30 -60 -44.5 -112t-14.5 -97zM340 1169q0 -57 12.5 -126.5t38.5 -153.5 q74 130 99.5 202t25.5 134q0 58 -20.5 89.5t-57.5 31.5q-48 0 -73 -45t-25 -132z" />
<glyph unicode="'" horiz-adv-x="317" d="M90 881v555h139v-555h-139z" />
<glyph unicode="(" horiz-adv-x="530" d="M102 682q0 224 54 433t157 392h172q-97 -182 -146.5 -389.5t-49.5 -435.5t49 -433t147 -390h-172q-104 183 -157.5 391.5t-53.5 431.5z" />
<glyph unicode=")" horiz-adv-x="530" d="M45 -141q99 186 148 391t49 432t-49.5 433t-147.5 392h172q104 -182 157.5 -392t53.5 -433q0 -222 -53.5 -431.5t-157.5 -391.5h-172z" />
<glyph unicode="*" horiz-adv-x="758" d="M49 1178l49 168l246 -140l-37 303h148l-39 -303l246 140l49 -168l-271 -52l195 -217l-129 -106l-127 274l-125 -274l-129 106l194 217z" />
<glyph unicode="+" horiz-adv-x="1706" d="M254 541v139h528v541h142v-541h528v-139h-528v-541h-142v541h-528z" />
<glyph unicode="," horiz-adv-x="408" d="M92 0v236h223v-236l-125 -260h-94l97 260h-101z" />
<glyph unicode="-" horiz-adv-x="473" d="M29 485v177h417v-177h-417z" />
<glyph unicode="." horiz-adv-x="408" d="M92 0v236h223v-236h-223z" />
<glyph unicode="/" horiz-adv-x="569" d="M-104 -190l579 1699h143l-579 -1699h-143z" />
<glyph unicode="0" d="M98 422v637q0 236 74 343t236 107q161 0 235 -107t74 -343v-637q0 -237 -74 -344t-235 -107q-162 0 -236 107t-74 344zM313 383q0 -121 22 -172t73 -51q49 0 71.5 52t22.5 171v715q0 118 -22.5 170.5t-71.5 52.5q-51 0 -73 -51.5t-22 -171.5v-715z" />
<glyph unicode="1" d="M125 1194v131q70 27 135.5 71t130.5 107h133v-1503h-207v1194h-192z" />
<glyph unicode="2" d="M82 0v174q249 448 329.5 650.5t80.5 344.5q0 71 -24 110.5t-67 39.5q-51 0 -76.5 -52.5t-25.5 -156.5q0 -7 1 -23t1 -24h-199q0 8 -1 24.5t-1 24.5q0 187 83.5 294t228.5 107q131 0 210.5 -94.5t79.5 -251.5q0 -161 -82 -373t-307 -604h371v-190h-602z" />
<glyph unicode="3" d="M84 354q0 28 0.5 42.5t2.5 27.5h206v-53q0 -113 21.5 -162t70.5 -49q48 0 71 51.5t23 159.5q0 197 -35 254t-135 57h-22v197h18q93 0 130.5 47t37.5 168q0 125 -21 176t-71 51q-45 0 -65.5 -43t-20.5 -137q0 -8 1 -24.5t1 -24.5h-201q0 9 -1 27t-1 26q0 182 72 273 t217 91q158 0 225.5 -92t67.5 -315q0 -149 -35 -220t-117 -94q92 -30 129 -109t37 -263q0 -229 -72 -337t-225 -108q-156 0 -232.5 95t-76.5 288z" />
<glyph unicode="4" d="M68 315v201l352 965h219v-985h135v-181h-135v-315h-199v315h-372zM225 496h215v389q0 39 9.5 123.5t27.5 208.5z" />
<glyph unicode="5" d="M109 362q0 24 0.5 37t1.5 23h214q0 -13 -0.5 -26.5t-0.5 -39.5q0 -104 22 -149t72 -45q45 0 67.5 37t22.5 110v334q0 107 -24 154t-78 47q-41 0 -65 -31t-28 -88h-180l25 756h536v-195h-358l-8 -336q34 42 79.5 64t96.5 22q114 0 165.5 -88t51.5 -284v-299 q0 -205 -74 -299.5t-233 -94.5q-153 0 -229 98t-76 293z" />
<glyph unicode="6" d="M121 360v693q0 252 72.5 354t244.5 102q143 0 215 -97.5t72 -289.5v-24h-213v94q0 57 -23.5 90t-64.5 33q-46 0 -68 -41.5t-22 -126.5v-320q49 45 95.5 68t88.5 23q106 0 156.5 -78t50.5 -242v-238q0 -200 -76 -295.5t-235 -95.5q-146 0 -219.5 98t-73.5 293zM334 332 q0 -91 20 -129.5t66 -38.5q45 0 68.5 37.5t23.5 109.5v271q0 77 -18.5 112t-59.5 35q-19 0 -46 -14.5t-54 -40.5v-342z" />
<glyph unicode="7" d="M94 1286v195h590l-260 -1481h-219l246 1286h-357z" />
<glyph unicode="8" d="M100 434q0 184 29.5 260t101.5 103q-64 26 -92 100.5t-28 224.5q0 212 68.5 299.5t228.5 87.5q163 0 230 -90.5t67 -322.5q0 -132 -29.5 -203.5t-91.5 -95.5q73 -27 102 -104.5t29 -284.5q0 -234 -72 -335.5t-235 -101.5q-167 0 -237.5 103t-70.5 360zM311 422 q0 -159 21 -210.5t76 -51.5q54 0 76 54.5t22 207.5t-22 207.5t-76 54.5q-55 0 -76 -52t-21 -210zM319 1110q0 -116 20.5 -163.5t68.5 -47.5q47 0 67.5 47.5t20.5 163.5q0 113 -21 162t-67 49q-48 0 -68.5 -47.5t-20.5 -163.5z" />
<glyph unicode="9" d="M98 356v25h215v-94q0 -59 22.5 -91t63.5 -32q46 0 68 41.5t22 126.5v319q-47 -43 -94 -65.5t-90 -22.5q-106 0 -156.5 77t-50.5 241v237q0 201 76 296t236 95q146 0 220.5 -98t74.5 -291v-694q0 -251 -73.5 -354t-246.5 -103q-142 0 -214.5 97.5t-72.5 289.5zM313 897 q0 -78 18 -112.5t58 -34.5q20 0 46.5 14.5t53.5 40.5v344q0 88 -20 127t-66 39q-45 0 -67.5 -36.5t-22.5 -111.5v-270z" />
<glyph unicode=":" horiz-adv-x="408" d="M92 0v236h223v-236h-223zM92 559v236h223v-236h-223z" />
<glyph unicode=";" horiz-adv-x="408" d="M92 0v236h223v-236l-125 -260h-94l97 260h-101zM92 559v236h223v-236h-223z" />
<glyph unicode="&#x3c;" horiz-adv-x="1706" d="M264 547v129l1178 483v-153l-969 -396l969 -393v-154z" />
<glyph unicode="=" horiz-adv-x="1706" d="M254 342v139h1198v-139h-1198zM254 739v140h1198v-140h-1198z" />
<glyph unicode="&#x3e;" horiz-adv-x="1706" d="M264 63v154l971 393l-971 396v153l1178 -483v-129z" />
<glyph unicode="?" horiz-adv-x="735" d="M33 1266q42 115 122 176t189 61q124 0 204.5 -75t80.5 -191q0 -90 -98 -274q-39 -72 -58 -111q-36 -75 -53 -158.5t-17 -187.5v-80h-184v84q0 151 15 256t47 174q10 23 31 67q94 197 94 255q0 35 -15 53t-43 18q-33 0 -63.5 -36t-55.5 -105zM201 0v236h223v-236h-223z " />
<glyph unicode="@" horiz-adv-x="2048" d="M106 522q0 165 52 313t151 269q146 178 351.5 270t455.5 92q163 0 310 -45t253 -127q130 -100 197.5 -231t67.5 -283q0 -175 -63.5 -315t-184.5 -236q-68 -54 -149.5 -83t-166.5 -29q-99 0 -149.5 39.5t-50.5 117.5v19q-55 -89 -129 -131.5t-172 -42.5q-153 0 -233.5 85 t-80.5 247q0 235 138 394t339 159q85 0 145.5 -37.5t96.5 -112.5l57 115h132l-146 -576q-4 -16 -6 -31t-2 -28q0 -46 25.5 -70t74.5 -24q48 0 102.5 26.5t106.5 75.5q80 76 125 186.5t45 233.5q0 259 -190.5 420t-499.5 161q-133 0 -246 -28t-211 -86q-191 -114 -296 -299.5 t-105 -409.5q0 -177 61.5 -308t192.5 -230q100 -77 236.5 -118.5t287.5 -41.5q169 0 328.5 49t292.5 141l55 -82q-148 -111 -314.5 -167t-349.5 -56q-190 0 -348 47t-280 140q-154 118 -230 274t-76 354zM725 446q0 -105 48.5 -162t137.5 -57q97 0 174.5 69t104.5 179 l59 236q-17 88 -68.5 136t-129.5 48q-138 0 -232 -130t-94 -319z" />
<glyph unicode="A" horiz-adv-x="786" d="M39 0l217 1481h285l227 -1481h-223l-37 299h-219l-35 -299h-215zM309 496h178l-81 860h-11z" />
<glyph unicode="B" horiz-adv-x="909" d="M125 0v1481h274q238 0 329 -85t91 -300q0 -137 -34.5 -212.5t-112.5 -109.5q87 -34 127.5 -117.5t40.5 -228.5q0 -227 -101 -327.5t-329 -100.5h-285zM344 190h78q108 0 151 55.5t43 198.5q0 125 -42.5 174.5t-151.5 49.5h-78v-478zM344 862h66q103 0 144.5 48.5 t41.5 172.5q0 119 -40.5 165t-141.5 46h-70v-432z" />
<glyph unicode="C" horiz-adv-x="879" d="M109 500v481q0 281 83.5 404.5t272.5 123.5q175 0 265.5 -116t90.5 -338v-74h-223v117q0 117 -32 170t-101 53t-101 -53t-32 -170v-715q0 -117 32 -170t101 -53t101 53t32 170v141h223v-94q0 -226 -90.5 -342.5t-265.5 -116.5q-189 0 -272.5 124t-83.5 405z" />
<glyph unicode="D" horiz-adv-x="924" d="M125 0v1481h233q263 0 361 -91t98 -325v-662q0 -210 -88.5 -306.5t-282.5 -96.5h-321zM344 193h62q102 0 145 59.5t43 204.5v616q0 126 -40 172.5t-146 46.5h-64v-1099z" />
<glyph unicode="E" horiz-adv-x="758" d="M125 0v1481h586v-199h-367v-410h287v-202h-287v-471h401v-199h-620z" />
<glyph unicode="F" horiz-adv-x="764" d="M125 0v1481h631v-199h-398v-408h291v-206h-291v-668h-233z" />
<glyph unicode="G" horiz-adv-x="924" d="M109 500v481q0 281 83.5 404.5t272.5 123.5q175 0 265.5 -116t90.5 -338v-54h-223v97q0 117 -32 170t-101 53t-101 -53t-32 -170v-707q0 -117 32 -170t101 -53t101 53t32 170v172h-117v185h340v-748h-104l-53 109q-45 -62 -106.5 -93.5t-135.5 -31.5q-163 0 -238 123.5 t-75 392.5z" />
<glyph unicode="H" horiz-adv-x="930" d="M125 0v1481h219v-615h242v615h219v-1481h-219v666h-242v-666h-219z" />
<glyph unicode="I" horiz-adv-x="469" d="M125 0v1481h219v-1481h-219z" />
<glyph unicode="J" horiz-adv-x="567" d="M21 -10v204q20 -7 39.5 -10.5t37.5 -3.5q68 0 95.5 49t27.5 183v1069h217v-1098q0 -220 -69 -314t-228 -94q-29 0 -59 4t-61 11z" />
<glyph unicode="K" d="M125 0v1481h219v-617l234 617h217l-226 -529l252 -952h-221l-186 752l-70 -156v-596h-219z" />
<glyph unicode="L" horiz-adv-x="739" d="M125 0v1481h219v-1276h401v-205h-620z" />
<glyph unicode="M" horiz-adv-x="1169" d="M125 0v1481h283l135 -789q11 -64 20.5 -154t18.5 -212q6 117 15.5 207t23.5 157l149 791h272v-1481h-183q-2 67 -2.5 143.5t-0.5 223.5q0 289 8 533.5t25 449.5l-256 -1350h-109l-235 1350q10 -287 15 -622t5 -728h-184z" />
<glyph unicode="N" horiz-adv-x="934" d="M123 0v1481h211l332 -1143q-27 257 -40.5 515.5t-13.5 518.5v109h197v-1481h-184l-363 1260q26 -302 40 -616.5t17 -643.5h-196z" />
<glyph unicode="O" horiz-adv-x="930" d="M109 500v481q0 281 83.5 404.5t272.5 123.5q188 0 272 -124t84 -404v-481q0 -281 -84 -405t-272 -124q-189 0 -272.5 124t-83.5 405zM332 383q0 -117 32 -170t101 -53t101 53t32 170v715q0 117 -32 170t-101 53t-101 -53t-32 -170v-715z" />
<glyph unicode="P" horiz-adv-x="872" d="M125 0v1481h272q257 0 352 -92t95 -334q0 -234 -94.5 -336.5t-309.5 -102.5h-96v-616h-219zM344 807h72q116 0 160.5 54t44.5 204q0 123 -45 175t-150 52h-82v-485z" />
<glyph unicode="Q" horiz-adv-x="930" d="M109 500v481q0 281 83.5 404.5t272.5 123.5q188 0 272 -124t84 -404v-481q0 -135 -11.5 -217.5t-37.5 -128.5q16 -25 41 -40.5t64 -23.5l-1 -194q-74 4 -127.5 38t-84.5 97q-47 -31 -94.5 -45.5t-104.5 -14.5q-189 0 -272.5 124t-83.5 405zM332 383q0 -117 32 -170 t101 -53q26 0 48 11t44 34q-9 36 -35.5 64.5t-66.5 43.5v199q42 -9 77 -38t66 -81v705q0 117 -32 170t-101 53t-101 -53t-32 -170v-715z" />
<glyph unicode="R" horiz-adv-x="887" d="M125 0v1481h242q258 0 354 -93.5t96 -338.5q0 -150 -41.5 -241.5t-130.5 -137.5l195 -670h-226l-174 623h-96v-623h-219zM344 813h53q112 0 154.5 53t42.5 195q0 129 -40 180t-138 51h-72v-479z" />
<glyph unicode="S" horiz-adv-x="739" d="M45 385l209 31v-13q0 -120 31 -180.5t94 -60.5q55 0 85 42.5t30 121.5q0 54 -20.5 106.5t-63.5 112.5q-41 55 -140 173.5t-133 180.5q-38 70 -57 134.5t-19 123.5q0 163 84 258.5t226 95.5q145 0 229 -97t90 -273l-198 -25q-5 106 -34 154.5t-87 48.5q-43 0 -71 -38.5 t-28 -98.5q0 -53 27.5 -117t77.5 -127q19 -24 57 -70q135 -166 182 -239q45 -69 67 -144t22 -159q0 -157 -91 -256t-235 -99q-149 0 -235.5 107t-98.5 307z" />
<glyph unicode="T" horiz-adv-x="659" d="M16 1292v189h625v-189h-203v-1292h-219v1292h-203z" />
<glyph unicode="U" horiz-adv-x="932" d="M125 463v1018h219v-1078q0 -122 29 -174.5t94 -52.5t94 52.5t29 174.5v1078h217v-1018q0 -267 -78.5 -378.5t-261.5 -111.5q-184 0 -263 111.5t-79 378.5z" />
<glyph unicode="V" horiz-adv-x="772" d="M29 1481h211l100 -764q23 -170 36.5 -300t20.5 -240q10 156 22 293t25 248l97 763h215l-250 -1481h-219z" />
<glyph unicode="W" horiz-adv-x="1096" d="M16 1481h199l84 -777q2 -16 10.5 -183t18.5 -318q7 165 39 468l4 38l86 772h184l100 -764q7 -48 19.5 -184t27.5 -330q6 149 13.5 280.5t17.5 233.5l78 764h195l-203 -1481h-193l-100 752q-15 112 -25.5 244t-17.5 300q-14 -189 -26.5 -338.5t-18.5 -207.5l-90 -750h-187 z" />
<glyph unicode="X" horiz-adv-x="735" d="M8 0l238 776l-217 705h211l131 -549l129 549h215l-219 -707l235 -774h-207l-151 629l-152 -629h-213z" />
<glyph unicode="Y" horiz-adv-x="721" d="M-6 1481h229l139 -670l144 670h219l-258 -877v-604h-219v606z" />
<glyph unicode="Z" horiz-adv-x="754" d="M35 0v190l430 1092h-397v199h626v-193l-428 -1089h428v-199h-659z" />
<glyph unicode="[" horiz-adv-x="530" d="M137 -104v1585h383v-164h-192v-1258h192v-163h-383z" />
<glyph unicode="\" horiz-adv-x="569" d="M-49 1509h143l580 -1699h-144z" />
<glyph unicode="]" horiz-adv-x="530" d="M10 59h193v1258h-193v164h383v-1585h-383v163z" />
<glyph unicode="^" horiz-adv-x="2048" d="M420 901l510 557h186l510 -557h-180l-422 420l-424 -420h-180z" />
<glyph unicode="_" horiz-adv-x="1024" d="M0 -340h1024v-143h-1024v143z" />
<glyph unicode="`" horiz-adv-x="1024" d="M274 1577h179l163 -348h-104z" />
<glyph unicode="a" horiz-adv-x="784" d="M57 246q0 158 100.5 275.5t323.5 217.5v60q0 76 -24 110.5t-76 34.5t-82.5 -38.5t-32.5 -106.5h-194q9 150 95.5 233.5t233.5 83.5q152 0 218.5 -86.5t66.5 -284.5v-505q0 -76 5 -135t16 -105h-201l-21 111q-43 -61 -97 -92t-114 -31q-99 0 -158 69.5t-59 188.5zM260 299 q0 -57 25 -91t67 -34q33 0 65.5 22t63.5 66v305q-114 -56 -167.5 -121t-53.5 -147z" />
<glyph unicode="b" horiz-adv-x="803" d="M109 0v1481h204v-480q46 59 93 87t98 28q103 0 154 -83t51 -253v-448q0 -180 -48 -265t-149 -85q-54 0 -103 29t-96 87v-98h-204zM313 231q31 -30 57.5 -44.5t51.5 -14.5q45 0 62.5 43.5t17.5 173.5v356q0 99 -20 140t-66 41q-23 0 -48.5 -13t-54.5 -39v-643z" />
<glyph unicode="c" horiz-adv-x="782" d="M96 371v354q0 197 74.5 294t224.5 97t231 -91t81 -259v-49h-197v76q0 78 -25 113.5t-79 35.5q-55 0 -80 -35.5t-25 -113.5v-488q0 -78 25 -114.5t80 -36.5q54 0 79 36.5t25 114.5v78h197v-64q0 -161 -82 -250t-230 -89q-150 0 -224.5 97t-74.5 294z" />
<glyph unicode="d" horiz-adv-x="803" d="M94 332v448q0 170 52 253t157 83q49 0 94.5 -28t91.5 -87v480h205v-1481h-205v98q-46 -58 -95.5 -87t-102.5 -29q-101 0 -149 85t-48 265zM301 389q0 -129 17.5 -173t62.5 -44q24 0 49.5 14t58.5 45v643q-28 26 -54 39t-48 13q-46 0 -66 -41t-20 -140v-356z" />
<glyph unicode="e" horiz-adv-x="788" d="M96 371v354q0 200 76 295.5t236 95.5q156 0 233.5 -109t77.5 -329v-166h-418v-207q0 -78 25 -114.5t80 -36.5q54 0 79 36.5t25 114.5v78h197v-64q0 -161 -82 -250t-230 -89q-150 0 -224.5 97t-74.5 294zM301 684h209v109q0 78 -25 113.5t-79 35.5q-55 0 -80 -35.5 t-25 -113.5v-109z" />
<glyph unicode="f" horiz-adv-x="530" d="M45 930v170h121v139q0 143 50 198.5t179 55.5h107v-166h-45q-51 0 -69.5 -23t-18.5 -92v-112h127v-170h-127v-930h-203v930h-121z" />
<glyph unicode="g" horiz-adv-x="754" d="M39 -160q0 59 44.5 103.5t133.5 74.5q-57 16 -86 47t-29 78t29 89.5t88 80.5q-77 41 -110 125.5t-33 249.5q0 224 73.5 326t233.5 102q73 0 125.5 -24t87.5 -74q26 48 65 72t93 24h14v-178l-30 3q-10 1 -17 1q-24 0 -44.5 -6t-37.5 -19q10 -42 15 -95t5 -115 q0 -211 -71 -314.5t-215 -103.5q-16 0 -25 0.5t-16 1.5q-23 -14 -35 -31.5t-12 -36.5q0 -18 16.5 -31t42.5 -16q23 -3 65 -8q136 -17 175 -33q91 -36 133.5 -87.5t42.5 -125.5q0 -123 -106 -199.5t-279 -76.5q-161 0 -248.5 51t-87.5 145zM236 -117q0 -49 42.5 -74.5 t124.5 -25.5q76 0 124 30.5t48 75.5q0 48 -52 72.5t-171 32.5q-54 -15 -85 -44.5t-31 -66.5zM274 702q0 -151 20 -200t71 -49t70.5 49t19.5 200q0 152 -19.5 201t-70.5 49t-71 -49t-20 -201z" />
<glyph unicode="h" horiz-adv-x="811" d="M109 0v1481h204v-504q49 65 106.5 102t108.5 37q102 0 144.5 -74t42.5 -264v-778h-205v786q0 76 -19 108t-63 32q-27 0 -58 -21t-57 -57v-848h-204z" />
<glyph unicode="i" horiz-adv-x="432" d="M115 0v1100h202v-1100h-202zM115 1274v207h202v-207h-202z" />
<glyph unicode="j" horiz-adv-x="432" d="M0 -164h25q52 0 71 28.5t19 135.5v1100h202v-1100q0 -207 -52.5 -276.5t-190.5 -69.5q-30 0 -46 0.5t-28 1.5v180zM115 1274v207h202v-207h-202z" />
<glyph unicode="k" horiz-adv-x="782" d="M109 0v1481h204v-789l238 408h219l-242 -369l256 -731h-202l-195 596l-74 -123v-473h-204z" />
<glyph unicode="l" horiz-adv-x="432" d="M115 0v1481h202v-1481h-202z" />
<glyph unicode="m" horiz-adv-x="1159" d="M109 0v1100h192v-135q59 74 112.5 112.5t100.5 38.5q61 0 101.5 -38t58.5 -113q58 73 113 112t102 39q93 0 132.5 -74.5t39.5 -263.5v-778h-203v786q0 73 -17 104.5t-57 31.5q-22 0 -47 -19.5t-49 -54.5v-848h-205v786q0 73 -17 104.5t-56 31.5q-23 0 -48 -19.5 t-49 -54.5v-848h-204z" />
<glyph unicode="n" horiz-adv-x="811" d="M109 0v1100h192v-135q61 75 118 113t109 38q102 0 144.5 -74t42.5 -264v-778h-205v786q0 76 -19 108t-63 32q-27 0 -58 -21t-57 -57v-848h-204z" />
<glyph unicode="o" horiz-adv-x="811" d="M96 371v354q0 200 75.5 295.5t234.5 95.5q157 0 233 -96t76 -295v-354q0 -201 -75.5 -296t-233.5 -95q-159 0 -234.5 95t-75.5 296zM301 305q0 -78 25 -114.5t80 -36.5q54 0 79 36.5t25 114.5v488q0 78 -25 113.5t-79 35.5q-55 0 -80 -35.5t-25 -113.5v-488z" />
<glyph unicode="p" horiz-adv-x="803" d="M109 -344v1446h196v-111q47 62 99 93.5t108 31.5q101 0 149 -84t48 -262v-451q0 -170 -51 -252.5t-154 -82.5q-50 0 -97 28.5t-94 87.5v-444h-204zM313 227q29 -25 54.5 -38t48.5 -13q46 0 66 41t20 139v355q0 129 -17.5 173t-62.5 44q-25 0 -51.5 -14t-57.5 -44v-643z " />
<glyph unicode="q" horiz-adv-x="803" d="M94 319v451q0 178 48 262t149 84q57 0 109 -31t98 -94v111h196v-1446h-205v444q-47 -60 -93 -88t-97 -28q-103 0 -154 83.5t-51 251.5zM301 356q0 -98 20 -139t66 -41q22 0 48 13t54 38v643q-31 31 -57 44.5t-51 13.5q-45 0 -62.5 -44t-17.5 -173v-355z" />
<glyph unicode="r" horiz-adv-x="545" d="M109 0v1100h190v-146q42 81 98.5 119.5t138.5 42.5l1 -221q-18 5 -40 7.5t-53 2.5q-73 0 -102 -40t-29 -156v-709h-204z" />
<glyph unicode="s" horiz-adv-x="649" d="M49 303l180 16v-10q0 -78 25 -118.5t72 -40.5q39 0 64.5 30.5t25.5 79.5q0 48 -33.5 100.5t-130.5 147.5q-118 118 -150 186.5t-32 155.5q0 128 69.5 197t198.5 69q119 0 189 -76t77 -212l-178 -14q-3 74 -24 108t-64 34q-41 0 -62.5 -23t-21.5 -67q0 -85 126 -208l7 -7 q130 -123 174.5 -205.5t44.5 -177.5q0 -128 -76 -207t-198 -79q-137 0 -208.5 81t-74.5 240z" />
<glyph unicode="t" horiz-adv-x="532" d="M23 928v172h118v295h205v-295h146v-172h-146v-606q0 -99 18 -128.5t66 -29.5q18 0 55 3q7 1 11 1v-166q-28 -9 -56 -13.5t-57 -4.5q-138 0 -190 72t-52 278v594h-118z" />
<glyph unicode="u" horiz-adv-x="811" d="M96 322v778h205v-787q0 -75 19 -107t63 -32q27 0 57.5 20.5t57.5 57.5v848h202v-1100h-190v135q-58 -72 -115.5 -108.5t-111.5 -36.5q-103 0 -145 71t-42 261z" />
<glyph unicode="v" horiz-adv-x="680" d="M31 1100h196l90 -637q8 -52 16.5 -143.5t16.5 -206.5q8 112 15.5 198.5t15.5 149.5l78 639h194l-207 -1100h-196z" />
<glyph unicode="w" horiz-adv-x="985" d="M25 1100h182l72 -605q6 -55 13.5 -150.5t14.5 -217.5q12 143 21 239.5t14 129.5l82 604h145l86 -608q6 -47 17.5 -146.5t23.5 -218.5q5 114 11.5 203t15.5 159l70 611h174l-187 -1100h-159l-86 538q-8 49 -18.5 158.5t-20.5 253.5q-14 -178 -23.5 -280t-13.5 -129 l-80 -541h-164z" />
<glyph unicode="x" horiz-adv-x="662" d="M12 0l207 590l-186 510h192l86 -264q11 -36 17 -74.5t8 -81.5q1 38 6.5 76.5t15.5 79.5l70 264h203l-182 -514l202 -586h-194l-103 349q-7 23 -12 62.5t-8 91.5q-5 -63 -10 -99.5t-11 -55.5l-102 -348h-199z" />
<glyph unicode="y" horiz-adv-x="664" d="M27 1100h198l129 -922l101 922h194l-211 -1123q-36 -187 -108 -261t-211 -74q-15 0 -49 2q-11 1 -17 2v184q14 -3 27 -4.5t26 -1.5q68 0 101 44.5t33 135.5q0 60 -39 254l-2 10z" />
<glyph unicode="z" horiz-adv-x="635" d="M39 0v154l334 774h-303v172h516v-172l-328 -758h336v-170h-555z" />
<glyph unicode="{" horiz-adv-x="1024" d="M168 457v149q8 0 23 -1t22 -1q130 0 184 60.5t54 207.5v246q0 148 22.5 210.5t77.5 96.5q45 28 108.5 40t169.5 12h37v-150h-41q-120 0 -161 -44.5t-41 -184.5v-242q0 -160 -44.5 -228t-156.5 -98q113 -28 157 -96t44 -229v-242q0 -141 41.5 -185t162.5 -44h39v-148h-43 q-108 0 -169 11.5t-103 37.5q-55 34 -77.5 97t-22.5 211v245q0 149 -54.5 210t-185.5 61q-7 0 -21.5 -1t-21.5 -1z" />
<glyph unicode="|" horiz-adv-x="1024" d="M438 -483v2048h150v-2048h-150z" />
<glyph unicode="}" horiz-adv-x="1024" d="M160 -266h39q120 0 162 45t42 186v240q0 160 44.5 228t156.5 97q-112 30 -156.5 98t-44.5 228v242q0 140 -42 184.5t-162 44.5h-39v150h37q107 0 171 -12.5t107 -39.5q55 -34 77.5 -96.5t22.5 -210.5v-246q0 -147 54 -207.5t184 -60.5q7 0 22 1t23 1v-149q-7 0 -22 1 t-21 1q-132 0 -186 -60.5t-54 -210.5v-245q0 -148 -22.5 -211t-77.5 -97q-42 -26 -103 -37.5t-169 -11.5h-43v148z" />
<glyph unicode="~" horiz-adv-x="1706" d="M178 451v155q106 72 202 108t185 36q62 0 127.5 -13.5t163.5 -48.5q16 -5 47 -17q159 -57 240 -57q88 0 179.5 37t207.5 119v-156q-104 -72 -199 -106.5t-190 -34.5q-93 0 -256 58q-22 8 -34 12l-15 5q-176 60 -273 60q-84 0 -175 -37t-210 -120z" />
<glyph d="M20 545l13 102h90v172h-98l12 103h86v137q0 236 73.5 343t235.5 107q159 0 231.5 -104.5t77.5 -345.5v-25h-215v64q0 118 -22 170.5t-72 52.5t-72 -51.5t-22 -171.5v-176h217l-12 -103h-205v-172h182l-12 -102h-170v-162q0 -121 22 -172t72 -51t72 52t22 171v72h215v-34 q-3 -238 -76 -344t-233 -106q-162 0 -235.5 107t-73.5 344v123h-103z" />
<glyph unicode="&#x20ac;" d="M20 545l13 102h90v172h-98l12 103h86v137q0 236 73.5 343t235.5 107q159 0 231.5 -104.5t77.5 -345.5v-25h-215v64q0 118 -22 170.5t-72 52.5t-72 -51.5t-22 -171.5v-176h217l-12 -103h-205v-172h182l-12 -102h-170v-162q0 -121 22 -172t72 -51t72 52t22 171v72h215v-34 q-3 -238 -76 -344t-233 -106q-162 0 -235.5 107t-73.5 344v123h-103z" />
<glyph unicode="&#xa0;" />
<glyph unicode="&#xa1;" horiz-adv-x="483" d="M115 0l55 1063h141l58 -1063h-254zM129 1247v234h223v-234h-223z" />
<glyph unicode="&#xa2;" d="M109 602v316q0 184 62 280t194 115v157h104v-159q123 -20 184.5 -110.5t61.5 -252.5v-30h-170q-2 115 -20 168.5t-56 57.5v-788q38 10 54 60t18 170h176q0 -7 1 -22.5t1 -22.5q0 -162 -64 -253t-186 -104v-235h-104v229q-136 15 -196 113.5t-60 310.5zM281 788 q0 -272 18 -347.5t66 -82.5v787q-48 -6 -66 -71.5t-18 -285.5z" />
<glyph unicode="&#xa3;" d="M94 -20v225q75 36 110.5 121t35.5 231q0 30 -4 98v7h-138v169l115 1q-3 19 -10 58q-35 201 -35 261q0 171 79 265.5t220 94.5q145 0 224 -95.5t79 -272.5q0 -7 -1 -22t-1 -23h-188v24q0 99 -25.5 148t-77.5 49q-50 0 -78 -34.5t-28 -96.5q0 -37 19 -157.5t28 -199.5h190 v-169h-174q2 -20 3 -42t1 -63q0 -91 -15 -169t-46 -144q37 -32 66 -47t55 -15q54 0 78 52t26 175l184 1q2 -14 2 -28v-42q0 -179 -64.5 -272t-188.5 -93q-61 0 -119.5 27.5t-120.5 85.5q-39 -46 -87.5 -72.5t-113.5 -35.5z" />
<glyph unicode="&#xa4;" d="M20 545l13 102h90v172h-98l12 103h86v137q0 236 73.5 343t235.5 107q159 0 231.5 -104.5t77.5 -345.5v-25h-215v64q0 118 -22 170.5t-72 52.5t-72 -51.5t-22 -171.5v-176h217l-12 -103h-205v-172h182l-12 -102h-170v-162q0 -121 22 -172t72 -51t72 52t22 171v72h215v-34 q-3 -238 -76 -344t-233 -106q-162 0 -235.5 107t-73.5 344v123h-103z" />
<glyph unicode="&#xa5;" d="M8 606v105h266l-51 170h-215v104h187l-146 496h223l144 -699l137 699h213l-148 -496h191v-104h-221l-51 -170h272v-105h-301v-606h-205v606h-295z" />
<glyph unicode="&#xa6;" horiz-adv-x="1024" d="M438 -350v758h150v-758h-150zM438 674v758h150v-758h-150z" />
<glyph unicode="&#xa7;" horiz-adv-x="758" d="M41 801q0 94 50.5 157t139.5 80q-47 64 -67.5 116t-20.5 106q0 112 67.5 180.5t176.5 68.5q80 0 148.5 -41t121.5 -122l-118 -105q-47 61 -78.5 83t-69.5 22q-34 0 -56 -26t-22 -67q0 -32 19 -67.5t90 -120.5l158 -182q80 -94 115.5 -171t35.5 -155q0 -98 -46.5 -157 t-139.5 -78q47 -61 69.5 -122t22.5 -126q0 -119 -70 -194t-182 -75q-84 0 -156.5 47t-126.5 136l121 108q46 -66 80.5 -93.5t69.5 -27.5q42 0 68 29.5t26 77.5q0 68 -95 183l-7 9l-175 213q-84 101 -116.5 171.5t-32.5 142.5zM209 825q0 -31 26 -81t84 -128q72 -99 107 -129 t68 -30q30 0 49.5 21t19.5 54q0 34 -20 75.5t-90 137.5t-104.5 128t-63.5 32q-32 0 -54 -23t-22 -57z" />
<glyph unicode="&#xa8;" horiz-adv-x="1024" d="M295 1278v229h164v-229h-164zM565 1278v229h164v-229h-164z" />
<glyph unicode="&#xa9;" horiz-adv-x="1706" d="M117 727q0 147 56 281.5t163 242.5q104 104 236 158.5t280 54.5q152 0 285.5 -54.5t238.5 -160.5q104 -103 159.5 -238.5t55.5 -283.5q0 -149 -54.5 -281.5t-158.5 -234.5q-110 -107 -245.5 -164t-280.5 -57t-278.5 56t-239.5 163q-106 105 -161.5 238.5t-55.5 279.5z M213 727q0 -126 49 -242t141 -209q92 -91 207.5 -139.5t243.5 -48.5q125 0 242 49t213 142q90 88 137 202.5t47 245.5q0 130 -47.5 246.5t-136.5 206.5q-93 92 -209 140t-246 48q-129 0 -243.5 -47t-204.5 -137q-93 -93 -143 -211.5t-50 -245.5zM463 733q0 200 109 322.5 t286 122.5q142 0 236.5 -75t105.5 -196h-147q-13 77 -66 118.5t-139 41.5q-105 0 -165 -90.5t-60 -249.5q0 -157 62 -244.5t173 -87.5q82 0 136.5 47t68.5 129h145q-9 -130 -107.5 -211t-248.5 -81q-182 0 -285.5 120t-103.5 334z" />
<glyph unicode="&#xaa;" horiz-adv-x="588" d="M43 883q0 111 75.5 193.5t241.5 152.5v41q0 54 -17.5 78t-55.5 24q-41 0 -63.5 -27.5t-22.5 -74.5h-148q8 105 73.5 164t174.5 59q114 0 163.5 -60t49.5 -200v-354q0 -48 4 -90t12 -78h-151l-14 77q-33 -42 -73.5 -64t-84.5 -22q-75 0 -119.5 49t-44.5 132zM195 920 q0 -40 19 -63t50 -23q26 0 49.5 15t46.5 46v213q-84 -39 -124.5 -85t-40.5 -103z" />
<glyph unicode="&#xab;" horiz-adv-x="782" d="M70 543l170 309h161l-168 -309l168 -312h-161zM387 543l170 309h162l-168 -309l168 -312h-162z" />
<glyph unicode="&#xac;" horiz-adv-x="1706" d="M254 721v139h1198v-502h-137v363h-1061z" />
<glyph unicode="&#xad;" horiz-adv-x="473" d="M29 485v177h417v-177h-417z" />
<glyph unicode="&#xae;" horiz-adv-x="1706" d="M117 727q0 146 57.5 282.5t165.5 245.5q101 103 231.5 156t280.5 53q151 0 286 -56t240 -163q103 -104 158 -238t55 -280q0 -151 -55 -283.5t-160 -234.5q-109 -106 -244.5 -162.5t-279.5 -56.5q-147 0 -280.5 56.5t-239.5 164.5q-105 106 -160 238.5t-55 277.5zM213 727 q0 -125 48.5 -240.5t139.5 -207.5q90 -92 206.5 -141.5t240.5 -49.5q130 0 246.5 48t212.5 140q90 88 138 202.5t48 242.5q0 134 -46.5 251t-135.5 206q-92 93 -208.5 141.5t-248.5 48.5q-130 0 -245 -47t-201 -135q-94 -95 -144.5 -214t-50.5 -245zM557 324v835h315 q174 0 261.5 -57.5t87.5 -171.5q0 -89 -50 -148t-141 -77l187 -381h-177l-170 356h-155v-356h-158zM715 780h133q113 0 162 31.5t49 101.5q0 76 -51 110t-164 34h-129v-277z" />
<glyph unicode="&#xaf;" horiz-adv-x="1024" d="M291 1319v147h442v-147h-442z" />
<glyph unicode="&#xb0;" horiz-adv-x="674" d="M49 1167q0 120 84.5 204.5t204.5 84.5q118 0 202.5 -84.5t84.5 -204.5q0 -119 -84 -202.5t-205 -83.5t-204 83t-83 203zM143 1169q0 -81 57 -138.5t138 -57.5t136.5 57.5t55.5 138.5t-55.5 137t-136.5 56t-138 -56t-57 -137z" />
<glyph unicode="&#xb1;" horiz-adv-x="1706" d="M254 29v141h1198v-141h-1198zM254 713v139h528v340h142v-340h528v-139h-528v-340h-142v340h-528z" />
<glyph unicode="&#xb2;" horiz-adv-x="539" d="M53 592v104q163 263 217 387t54 211q0 42 -16 65t-44 23q-33 0 -50 -31.5t-17 -93.5q0 -3 1 -13t1 -15h-131q0 5 -1 15t-1 16q0 112 55 175.5t151 63.5q87 0 139 -56t52 -151q0 -98 -55.5 -227.5t-200.5 -357.5h244v-115h-398z" />
<glyph unicode="&#xb3;" horiz-adv-x="539" d="M55 805q0 16 0.5 24.5t2.5 16.5h135v-31q0 -67 14.5 -97t46.5 -30t46.5 31t14.5 96q0 119 -23 152.5t-87 33.5h-17v117h13q61 0 85.5 28t24.5 101q0 77 -13.5 107t-45.5 30q-30 0 -43.5 -25.5t-13.5 -82.5q0 -5 1 -14.5t1 -14.5h-134q0 6 -1 16.5t-1 14.5 q0 110 47.5 164.5t143.5 54.5q105 0 149.5 -55t44.5 -189q0 -89 -23 -131.5t-77 -56.5q60 -18 84.5 -65.5t24.5 -157.5q0 -137 -47.5 -202t-147.5 -65q-104 0 -154.5 56.5t-50.5 173.5z" />
<glyph unicode="&#xb4;" horiz-adv-x="1024" d="M408 1229l163 348h179l-238 -348h-104z" />
<glyph unicode="&#xb5;" horiz-adv-x="1151" d="M-113 -428l318 1499h180l-129 -600q-7 -32 -10.5 -64.5t-3.5 -68.5q0 -99 52 -153t148 -54q132 0 208.5 92.5t123.5 311.5l115 536h178l-156 -732q-1 -6 -4 -20q-18 -87 -18 -112q0 -37 16.5 -52.5t55.5 -15.5q12 0 18.5 0.5t13.5 1.5l-31 -143q-24 -5 -50 -7.5t-58 -2.5 q-63 0 -97 29t-52 100q-45 -66 -112.5 -98.5t-158.5 -32.5q-82 0 -143 27.5t-113 88.5l-110 -530h-181z" />
<glyph unicode="&#xb6;" horiz-adv-x="1024" d="M66 1130q0 157 107.5 253t285.5 96h499v-86h-120v-1393h-111v1393h-176v-1393h-113v782q-170 8 -271 102.5t-101 245.5z" />
<glyph unicode="&#xb7;" horiz-adv-x="408" d="M88 741q0 49 34 82t83 33t81.5 -32.5t32.5 -82.5q0 -47 -34 -81.5t-80 -34.5q-47 0 -82 35.5t-35 80.5z" />
<glyph unicode="&#xb8;" horiz-adv-x="1024" d="M295 -315q65 -22 116 -32.5t89 -10.5q48 0 75 21t27 58q0 40 -29 58t-92 18q-5 0 -16.5 -1t-18.5 -1v205h76v-94h13q102 0 151 -47.5t49 -145.5q0 -89 -58.5 -138.5t-164.5 -49.5q-55 0 -109 10t-108 31v119z" />
<glyph unicode="&#xb9;" horiz-adv-x="539" d="M82 1309v77q47 17 90.5 43.5t85.5 63.5h88v-901h-137v717h-127z" />
<glyph unicode="&#xba;" horiz-adv-x="608" d="M72 971v248q0 139 57 206.5t176 67.5q118 0 175 -67.5t57 -206.5v-248q0 -141 -56.5 -208t-175.5 -67t-176 67t-57 208zM225 924q0 -54 19.5 -79.5t60.5 -25.5t59.5 25t18.5 80v342q0 54 -18.5 79t-59.5 25t-60.5 -25t-19.5 -79v-342z" />
<glyph unicode="&#xbb;" horiz-adv-x="782" d="M63 231l166 312l-166 309h162l170 -309l-172 -312h-160zM379 231l168 312l-168 309h162l172 -309l-172 -312h-162z" />
<glyph unicode="&#xbc;" horiz-adv-x="1370" d="M78 1319v74q42 14 82.5 38t85.5 62h84v-842h-131v668h-121zM203 -25l817 1518h145l-815 -1518h-147zM899 176v113l221 540h140v-550h83v-103h-83v-176h-127v176h-234zM997 279h136v217q0 22 6 69.5t18 116.5z" />
<glyph unicode="&#xbd;" horiz-adv-x="1370" d="M78 1319v74q42 14 82.5 38t85.5 62h84v-842h-131v668h-121zM203 -25l817 1518h145l-815 -1518h-147zM907 0v98q156 247 207 361.5t51 195.5q0 40 -15 62t-42 22q-31 0 -47.5 -29.5t-16.5 -86.5q0 -5 1.5 -14t1.5 -13h-125q0 4 -1 13t-1 14q0 105 52.5 165t143.5 60 q82 0 132 -53t50 -142t-51.5 -207.5t-193.5 -339.5h233v-106h-379z" />
<glyph unicode="&#xbe;" horiz-adv-x="1368" d="M53 850v39h131v-31q0 -61 14 -89t44 -28q31 0 45 28t14 89q0 112 -22 143t-84 31h-15v111h13q57 0 81.5 27t24.5 94q0 69 -14 98t-45 29q-28 0 -41 -24t-13 -77v-28h-125q0 6 -1 16.5t-1 13.5q0 103 46 154t137 51q99 0 141.5 -52t42.5 -177q0 -82 -22 -121.5t-74 -52.5 q58 -18 81 -62.5t23 -146.5q0 -129 -45 -189.5t-141 -60.5q-99 0 -147 53t-48 162zM203 -25l817 1518h145l-815 -1518h-147zM899 176v113l221 540h140v-550h83v-103h-83v-176h-127v176h-234zM997 279h136v217q0 22 6 69.5t18 116.5z" />
<glyph unicode="&#xbf;" horiz-adv-x="735" d="M96 244q0 91 99 277q38 71 57 110q36 76 53 159t17 185v80h186v-84q0 -147 -16 -253.5t-48 -176.5q-12 -26 -34 -74q-91 -190 -91 -246q0 -35 15 -53t43 -18q34 0 65.5 35.5t55.5 103.5l194 -72q-43 -117 -122.5 -178.5t-188.5 -61.5q-124 0 -204.5 75.5t-80.5 191.5z M301 1247v234h223v-234h-223z" />
<glyph unicode="&#xc0;" horiz-adv-x="786" d="M39 0l217 1481h285l227 -1481h-223l-37 299h-219l-35 -299h-215zM309 496h178l-81 860h-11zM155 1968h179l163 -348h-104z" />
<glyph unicode="&#xc1;" horiz-adv-x="786" d="M39 0l217 1481h285l227 -1481h-223l-37 299h-219l-35 -299h-215zM309 496h178l-81 860h-11zM289 1620l163 348h179l-238 -348h-104z" />
<glyph unicode="&#xc2;" horiz-adv-x="786" d="M39 0l217 1481h285l227 -1481h-223l-37 299h-219l-35 -299h-215zM309 496h178l-81 860h-11zM155 1620l152 348h172l152 -348h-105l-133 209l-133 -209h-105z" />
<glyph unicode="&#xc3;" horiz-adv-x="786" d="M39 0l217 1481h285l227 -1481h-223l-37 299h-219l-35 -299h-215zM309 496h178l-81 860h-11zM153 1657q16 109 54.5 164t99.5 55q15 0 32.5 -4t35.5 -11l69 -24l9 -3q18 -5 28 -5q27 0 45.5 19t26.5 56h80q-19 -115 -58 -170t-102 -55q-11 0 -24 2.5t-29 7.5l-68 23 q-19 7 -29.5 9.5t-19.5 2.5q-27 0 -43.5 -16t-26.5 -51h-80z" />
<glyph unicode="&#xc4;" horiz-adv-x="786" d="M39 0l217 1481h285l227 -1481h-223l-37 299h-219l-35 -299h-215zM309 496h178l-81 860h-11zM176 1669v229h164v-229h-164zM446 1669v229h164v-229h-164z" />
<glyph unicode="&#xc5;" horiz-adv-x="786" d="M39 0l215 1466q-55 36 -85 91.5t-30 123.5q0 108 75.5 183t182.5 75q109 0 183.5 -74.5t74.5 -183.5q0 -68 -29 -122t-85 -91l227 -1468h-223l-37 299h-219l-35 -299h-215zM270 1679q0 -53 37 -90t90 -37q54 0 91.5 37t37.5 90q0 54 -37.5 91.5t-91.5 37.5 q-53 0 -90 -37.5t-37 -91.5zM309 496h178l-81 860h-11z" />
<glyph unicode="&#xc6;" horiz-adv-x="1214" d="M-49 0l487 1481h729v-199h-368v-410h286v-202h-286v-471h401v-199h-620v354h-301l-107 -354h-221zM338 555h242v727h-33z" />
<glyph unicode="&#xc7;" horiz-adv-x="879" d="M109 500v481q0 281 83.5 404.5t272.5 123.5q175 0 265.5 -116t90.5 -338v-74h-223v117q0 117 -32 170t-101 53t-101 -53t-32 -170v-715q0 -117 32 -170t101 -53t101 53t32 170v141h223v-94q0 -226 -90.5 -342.5t-265.5 -116.5q-189 0 -272.5 124t-83.5 405zM240 -315 q65 -22 116 -32.5t89 -10.5q48 0 75 21t27 58q0 40 -29 58t-92 18q-5 0 -16.5 -1t-18.5 -1v205h76v-94h13q102 0 151 -47.5t49 -145.5q0 -89 -58.5 -138.5t-164.5 -49.5q-55 0 -109 10t-108 31v119z" />
<glyph unicode="&#xc8;" horiz-adv-x="758" d="M125 0v1481h586v-199h-367v-410h287v-202h-287v-471h401v-199h-620zM180 1968h179l163 -348h-104z" />
<glyph unicode="&#xc9;" horiz-adv-x="758" d="M125 0v1481h586v-199h-367v-410h287v-202h-287v-471h401v-199h-620zM314 1620l163 348h179l-238 -348h-104z" />
<glyph unicode="&#xca;" horiz-adv-x="758" d="M125 0v1481h586v-199h-367v-410h287v-202h-287v-471h401v-199h-620zM180 1620l152 348h172l152 -348h-105l-133 209l-133 -209h-105z" />
<glyph unicode="&#xcb;" horiz-adv-x="758" d="M125 0v1481h586v-199h-367v-410h287v-202h-287v-471h401v-199h-620zM201 1669v229h164v-229h-164zM471 1669v229h164v-229h-164z" />
<glyph unicode="&#xcc;" horiz-adv-x="469" d="M125 0v1481h219v-1481h-219zM-2 1968h179l163 -348h-104z" />
<glyph unicode="&#xcd;" horiz-adv-x="469" d="M125 0v1481h219v-1481h-219zM132 1620l163 348h179l-238 -348h-104z" />
<glyph unicode="&#xce;" horiz-adv-x="469" d="M125 0v1481h219v-1481h-219zM-2 1620l152 348h172l152 -348h-105l-133 209l-133 -209h-105z" />
<glyph unicode="&#xcf;" horiz-adv-x="469" d="M125 0v1481h219v-1481h-219zM19 1669v229h164v-229h-164zM289 1669v229h164v-229h-164z" />
<glyph unicode="&#xd0;" horiz-adv-x="944" d="M18 690v160h125v631h234q263 0 361 -91t98 -325v-662q0 -211 -88 -307t-281 -96h-324v690h-125zM362 193h64q102 0 144 59t42 205v616q0 126 -40 172.5t-146 46.5h-64v-442h121v-160h-121v-497z" />
<glyph unicode="&#xd1;" horiz-adv-x="934" d="M123 0v1481h211l332 -1143q-27 257 -40.5 515.5t-13.5 518.5v109h197v-1481h-184l-363 1260q26 -302 40 -616.5t17 -643.5h-196zM227 1657q16 109 54.5 164t99.5 55q15 0 32.5 -4t35.5 -11l69 -24l9 -3q18 -5 28 -5q27 0 45.5 19t26.5 56h80q-19 -115 -58 -170t-102 -55 q-11 0 -24 2.5t-29 7.5l-68 23q-19 7 -29.5 9.5t-19.5 2.5q-27 0 -43.5 -16t-26.5 -51h-80z" />
<glyph unicode="&#xd2;" horiz-adv-x="930" d="M109 500v481q0 281 83.5 404.5t272.5 123.5q188 0 272 -124t84 -404v-481q0 -281 -84 -405t-272 -124q-189 0 -272.5 124t-83.5 405zM332 383q0 -117 32 -170t101 -53t101 53t32 170v715q0 117 -32 170t-101 53t-101 -53t-32 -170v-715zM227 1968h179l163 -348h-104z" />
<glyph unicode="&#xd3;" horiz-adv-x="930" d="M109 500v481q0 281 83.5 404.5t272.5 123.5q188 0 272 -124t84 -404v-481q0 -281 -84 -405t-272 -124q-189 0 -272.5 124t-83.5 405zM332 383q0 -117 32 -170t101 -53t101 53t32 170v715q0 117 -32 170t-101 53t-101 -53t-32 -170v-715zM361 1620l163 348h179l-238 -348 h-104z" />
<glyph unicode="&#xd4;" horiz-adv-x="930" d="M109 500v481q0 281 83.5 404.5t272.5 123.5q188 0 272 -124t84 -404v-481q0 -281 -84 -405t-272 -124q-189 0 -272.5 124t-83.5 405zM332 383q0 -117 32 -170t101 -53t101 53t32 170v715q0 117 -32 170t-101 53t-101 -53t-32 -170v-715zM227 1620l152 348h172l152 -348 h-105l-133 209l-133 -209h-105z" />
<glyph unicode="&#xd5;" horiz-adv-x="930" d="M109 500v481q0 281 83.5 404.5t272.5 123.5q188 0 272 -124t84 -404v-481q0 -281 -84 -405t-272 -124q-189 0 -272.5 124t-83.5 405zM332 383q0 -117 32 -170t101 -53t101 53t32 170v715q0 117 -32 170t-101 53t-101 -53t-32 -170v-715zM225 1657q16 109 54.5 164 t99.5 55q15 0 32.5 -4t35.5 -11l69 -24l9 -3q18 -5 28 -5q27 0 45.5 19t26.5 56h80q-19 -115 -58 -170t-102 -55q-11 0 -24 2.5t-29 7.5l-68 23q-19 7 -29.5 9.5t-19.5 2.5q-27 0 -43.5 -16t-26.5 -51h-80z" />
<glyph unicode="&#xd6;" horiz-adv-x="930" d="M109 500v481q0 281 83.5 404.5t272.5 123.5q188 0 272 -124t84 -404v-481q0 -281 -84 -405t-272 -124q-189 0 -272.5 124t-83.5 405zM332 383q0 -117 32 -170t101 -53t101 53t32 170v715q0 117 -32 170t-101 53t-101 -53t-32 -170v-715zM248 1669v229h164v-229h-164z M518 1669v229h164v-229h-164z" />
<glyph unicode="&#xd7;" horiz-adv-x="1706" d="M293 141l469 469l-469 469l98 99l469 -469l469 469l98 -99l-469 -469l469 -469l-98 -96l-469 467l-469 -467z" />
<glyph unicode="&#xd8;" horiz-adv-x="930" d="M43 -41l102 227q-19 40 -27.5 116t-8.5 198v481q0 281 83.5 404.5t272.5 123.5q78 0 136 -21t95 -63l74 152l115 -57l-101 -222q20 -50 28.5 -119t8.5 -198v-481q0 -281 -84 -405t-272 -124q-74 0 -133.5 22t-102.5 64l-69 -157zM332 383q0 -117 32 -170t101 -53t101 53 t32 170v715q0 117 -32 170t-101 53t-101 -53t-32 -170v-715z" />
<glyph unicode="&#xd9;" horiz-adv-x="932" d="M125 463v1018h219v-1078q0 -122 29 -174.5t94 -52.5t94 52.5t29 174.5v1078h217v-1018q0 -267 -78.5 -378.5t-261.5 -111.5q-184 0 -263 111.5t-79 378.5zM229 1968h179l163 -348h-104z" />
<glyph unicode="&#xda;" horiz-adv-x="932" d="M125 463v1018h219v-1078q0 -122 29 -174.5t94 -52.5t94 52.5t29 174.5v1078h217v-1018q0 -267 -78.5 -378.5t-261.5 -111.5q-184 0 -263 111.5t-79 378.5zM363 1620l163 348h179l-238 -348h-104z" />
<glyph unicode="&#xdb;" horiz-adv-x="932" d="M125 463v1018h219v-1078q0 -122 29 -174.5t94 -52.5t94 52.5t29 174.5v1078h217v-1018q0 -267 -78.5 -378.5t-261.5 -111.5q-184 0 -263 111.5t-79 378.5zM229 1620l152 348h172l152 -348h-105l-133 209l-133 -209h-105z" />
<glyph unicode="&#xdc;" horiz-adv-x="932" d="M125 463v1018h219v-1078q0 -122 29 -174.5t94 -52.5t94 52.5t29 174.5v1078h217v-1018q0 -267 -78.5 -378.5t-261.5 -111.5q-184 0 -263 111.5t-79 378.5zM250 1669v229h164v-229h-164zM520 1669v229h164v-229h-164z" />
<glyph unicode="&#xdd;" horiz-adv-x="721" d="M-6 1481h229l139 -670l144 670h219l-258 -877v-604h-219v606zM256 1620l163 348h179l-238 -348h-104z" />
<glyph unicode="&#xde;" horiz-adv-x="872" d="M125 0v1481h219v-189h53q257 0 352 -91.5t95 -334.5q0 -233 -94.5 -335.5t-309.5 -102.5h-96v-428h-219zM344 616h72q115 0 160 55t45 206q0 122 -45 173.5t-150 51.5h-82v-486z" />
<glyph unicode="&#xdf;" horiz-adv-x="868" d="M109 0v1098q0 216 76 313.5t243 97.5q162 0 246 -92.5t84 -271.5q0 -108 -38.5 -184.5t-115.5 -120.5q106 -32 151.5 -124.5t45.5 -281.5q0 -222 -73.5 -337t-215.5 -115q-25 0 -54 5t-61 15v191q27 -15 46.5 -22t35.5 -7q56 0 84.5 64.5t28.5 191.5q0 168 -40 242 t-130 76v177q67 5 99 56t32 155q0 106 -30.5 159.5t-90.5 53.5t-88.5 -58.5t-28.5 -182.5v-1098h-206z" />
<glyph unicode="&#xe0;" horiz-adv-x="784" d="M57 246q0 158 100.5 275.5t323.5 217.5v60q0 76 -24 110.5t-76 34.5t-82.5 -38.5t-32.5 -106.5h-194q9 150 95.5 233.5t233.5 83.5q152 0 218.5 -86.5t66.5 -284.5v-505q0 -76 5 -135t16 -105h-201l-21 111q-43 -61 -97 -92t-114 -31q-99 0 -158 69.5t-59 188.5zM260 299 q0 -57 25 -91t67 -34q33 0 65.5 22t63.5 66v305q-114 -56 -167.5 -121t-53.5 -147zM155 1577h179l163 -348h-104z" />
<glyph unicode="&#xe1;" horiz-adv-x="784" d="M57 246q0 158 100.5 275.5t323.5 217.5v60q0 76 -24 110.5t-76 34.5t-82.5 -38.5t-32.5 -106.5h-194q9 150 95.5 233.5t233.5 83.5q152 0 218.5 -86.5t66.5 -284.5v-505q0 -76 5 -135t16 -105h-201l-21 111q-43 -61 -97 -92t-114 -31q-99 0 -158 69.5t-59 188.5zM260 299 q0 -57 25 -91t67 -34q33 0 65.5 22t63.5 66v305q-114 -56 -167.5 -121t-53.5 -147zM289 1229l163 348h179l-238 -348h-104z" />
<glyph unicode="&#xe2;" horiz-adv-x="784" d="M57 246q0 158 100.5 275.5t323.5 217.5v60q0 76 -24 110.5t-76 34.5t-82.5 -38.5t-32.5 -106.5h-194q9 150 95.5 233.5t233.5 83.5q152 0 218.5 -86.5t66.5 -284.5v-505q0 -76 5 -135t16 -105h-201l-21 111q-43 -61 -97 -92t-114 -31q-99 0 -158 69.5t-59 188.5zM260 299 q0 -57 25 -91t67 -34q33 0 65.5 22t63.5 66v305q-114 -56 -167.5 -121t-53.5 -147zM155 1229l152 348h172l152 -348h-105l-133 209l-133 -209h-105z" />
<glyph unicode="&#xe3;" horiz-adv-x="784" d="M57 246q0 158 100.5 275.5t323.5 217.5v60q0 76 -24 110.5t-76 34.5t-82.5 -38.5t-32.5 -106.5h-194q9 150 95.5 233.5t233.5 83.5q152 0 218.5 -86.5t66.5 -284.5v-505q0 -76 5 -135t16 -105h-201l-21 111q-43 -61 -97 -92t-114 -31q-99 0 -158 69.5t-59 188.5zM260 299 q0 -57 25 -91t67 -34q33 0 65.5 22t63.5 66v305q-114 -56 -167.5 -121t-53.5 -147zM153 1266q16 109 54.5 164t99.5 55q15 0 32.5 -4t35.5 -11l69 -24l9 -3q18 -5 28 -5q27 0 45.5 19t26.5 56h80q-19 -115 -58 -170t-102 -55q-11 0 -24 2.5t-29 7.5l-68 23q-19 7 -29.5 9.5 t-19.5 2.5q-27 0 -43.5 -16t-26.5 -51h-80z" />
<glyph unicode="&#xe4;" horiz-adv-x="784" d="M57 246q0 158 100.5 275.5t323.5 217.5v60q0 76 -24 110.5t-76 34.5t-82.5 -38.5t-32.5 -106.5h-194q9 150 95.5 233.5t233.5 83.5q152 0 218.5 -86.5t66.5 -284.5v-505q0 -76 5 -135t16 -105h-201l-21 111q-43 -61 -97 -92t-114 -31q-99 0 -158 69.5t-59 188.5zM260 299 q0 -57 25 -91t67 -34q33 0 65.5 22t63.5 66v305q-114 -56 -167.5 -121t-53.5 -147zM176 1278v229h164v-229h-164zM446 1278v229h164v-229h-164z" />
<glyph unicode="&#xe5;" horiz-adv-x="784" d="M57 246q0 158 100.5 275.5t323.5 217.5v60q0 76 -24 110.5t-76 34.5t-82.5 -38.5t-32.5 -106.5h-194q9 151 96 236t233 85q151 0 218 -87.5t67 -287.5v-505q0 -76 5 -135t16 -105h-201l-21 111q-43 -61 -97 -92t-114 -31q-99 0 -158 69.5t-59 188.5zM145 1444 q0 107 75.5 182.5t182.5 75.5q108 0 183.5 -75.5t75.5 -182.5q0 -109 -74.5 -183.5t-184.5 -74.5q-109 0 -183.5 74.5t-74.5 183.5zM260 299q0 -57 25 -91t67 -34q33 0 65.5 22t63.5 66v305q-114 -56 -167.5 -121t-53.5 -147zM276 1444q0 -54 37 -90.5t90 -36.5 q54 0 90.5 36.5t36.5 90.5t-36.5 90.5t-90.5 36.5q-53 0 -90 -36.5t-37 -90.5z" />
<glyph unicode="&#xe6;" horiz-adv-x="1176" d="M57 246q0 158 100.5 275.5t323.5 217.5v60q0 76 -24 110.5t-76 34.5t-82.5 -38.5t-32.5 -106.5h-194q7 144 92.5 231.5t218.5 87.5q75 0 128.5 -27t82.5 -79q32 52 82.5 79t116.5 27q156 0 234.5 -110t78.5 -330v-166h-418v-207q0 -78 25 -114.5t80 -36.5q54 0 79 36.5 t25 114.5v78h195v-64q0 -161 -81.5 -250t-228.5 -89q-92 0 -161 41.5t-103 117.5q-51 -74 -113.5 -112.5t-130.5 -38.5q-99 0 -158 69.5t-59 188.5zM260 299q0 -57 25 -91t67 -34q33 0 65.5 22t63.5 66v305q-114 -56 -167.5 -121t-53.5 -147zM688 684h209v109 q0 78 -25 113.5t-79 35.5q-55 0 -80 -35.5t-25 -113.5v-109z" />
<glyph unicode="&#xe7;" horiz-adv-x="782" d="M96 371v354q0 197 74.5 294t224.5 97t231 -91t81 -259v-49h-197v76q0 78 -25 113.5t-79 35.5q-55 0 -80 -35.5t-25 -113.5v-488q0 -78 25 -114.5t80 -36.5q54 0 79 36.5t25 114.5v78h197v-64q0 -161 -82 -250t-230 -89q-150 0 -224.5 97t-74.5 294zM174 -315 q65 -22 116 -32.5t89 -10.5q48 0 75 21t27 58q0 40 -29 58t-92 18q-5 0 -16.5 -1t-18.5 -1v205h76v-94h13q102 0 151 -47.5t49 -145.5q0 -89 -58.5 -138.5t-164.5 -49.5q-55 0 -109 10t-108 31v119z" />
<glyph unicode="&#xe8;" horiz-adv-x="788" d="M96 371v354q0 200 76 295.5t236 95.5q156 0 233.5 -109t77.5 -329v-166h-418v-207q0 -78 25 -114.5t80 -36.5q54 0 79 36.5t25 114.5v78h197v-64q0 -161 -82 -250t-230 -89q-150 0 -224.5 97t-74.5 294zM301 684h209v109q0 78 -25 113.5t-79 35.5q-55 0 -80 -35.5 t-25 -113.5v-109zM165 1577h179l163 -348h-104z" />
<glyph unicode="&#xe9;" horiz-adv-x="788" d="M96 371v354q0 200 76 295.5t236 95.5q156 0 233.5 -109t77.5 -329v-166h-418v-207q0 -78 25 -114.5t80 -36.5q54 0 79 36.5t25 114.5v78h197v-64q0 -161 -82 -250t-230 -89q-150 0 -224.5 97t-74.5 294zM301 684h209v109q0 78 -25 113.5t-79 35.5q-55 0 -80 -35.5 t-25 -113.5v-109zM299 1229l163 348h179l-238 -348h-104z" />
<glyph unicode="&#xea;" horiz-adv-x="788" d="M96 371v354q0 200 76 295.5t236 95.5q156 0 233.5 -109t77.5 -329v-166h-418v-207q0 -78 25 -114.5t80 -36.5q54 0 79 36.5t25 114.5v78h197v-64q0 -161 -82 -250t-230 -89q-150 0 -224.5 97t-74.5 294zM301 684h209v109q0 78 -25 113.5t-79 35.5q-55 0 -80 -35.5 t-25 -113.5v-109zM165 1229l152 348h172l152 -348h-105l-133 209l-133 -209h-105z" />
<glyph unicode="&#xeb;" horiz-adv-x="788" d="M96 371v354q0 200 76 295.5t236 95.5q156 0 233.5 -109t77.5 -329v-166h-418v-207q0 -78 25 -114.5t80 -36.5q54 0 79 36.5t25 114.5v78h197v-64q0 -161 -82 -250t-230 -89q-150 0 -224.5 97t-74.5 294zM301 684h209v109q0 78 -25 113.5t-79 35.5q-55 0 -80 -35.5 t-25 -113.5v-109zM186 1278v229h164v-229h-164zM456 1278v229h164v-229h-164z" />
<glyph unicode="&#xec;" horiz-adv-x="432" d="M115 0v1100h202v-1100h-202zM-21 1577h179l163 -348h-104z" />
<glyph unicode="&#xed;" horiz-adv-x="432" d="M115 0v1100h202v-1100h-202zM113 1229l163 348h179l-238 -348h-104z" />
<glyph unicode="&#xee;" horiz-adv-x="432" d="M115 0v1100h202v-1100h-202zM-21 1229l152 348h172l152 -348h-105l-133 209l-133 -209h-105z" />
<glyph unicode="&#xef;" horiz-adv-x="432" d="M115 0v1100h202v-1100h-202zM0 1278v229h164v-229h-164zM270 1278v229h164v-229h-164z" />
<glyph unicode="&#xf0;" horiz-adv-x="811" d="M96 352v336q0 186 75 279.5t222 93.5q14 0 32 -1.5t42 -4.5q-11 38 -28.5 75t-41.5 72l-155 -82l-52 103l140 80q-27 37 -52 67t-53 57l101 84q40 -36 73.5 -71.5t61.5 -69.5l166 86l59 -102l-151 -80q95 -119 137.5 -267.5t42.5 -375.5v-279q0 -190 -75.5 -281 t-233.5 -91q-159 0 -234.5 91t-75.5 281zM301 289q0 -75 25 -109.5t80 -34.5q54 0 79 34.5t25 109.5v463q0 74 -25.5 108.5t-78.5 34.5q-54 0 -79.5 -34.5t-25.5 -108.5v-463z" />
<glyph unicode="&#xf1;" horiz-adv-x="811" d="M109 0v1100h192v-135q61 75 118 113t109 38q102 0 144.5 -74t42.5 -264v-778h-205v786q0 76 -19 108t-63 32q-27 0 -58 -21t-57 -57v-848h-204zM184 1266q16 109 54.5 164t99.5 55q15 0 32.5 -4t35.5 -11l69 -24l9 -3q18 -5 28 -5q27 0 45.5 19t26.5 56h80 q-19 -115 -58 -170t-102 -55q-11 0 -24 2.5t-29 7.5l-68 23q-19 7 -29.5 9.5t-19.5 2.5q-27 0 -43.5 -16t-26.5 -51h-80z" />
<glyph unicode="&#xf2;" horiz-adv-x="811" d="M96 371v354q0 200 75.5 295.5t234.5 95.5q157 0 233 -96t76 -295v-354q0 -201 -75.5 -296t-233.5 -95q-159 0 -234.5 95t-75.5 296zM301 305q0 -78 25 -114.5t80 -36.5q54 0 79 36.5t25 114.5v488q0 78 -25 113.5t-79 35.5q-55 0 -80 -35.5t-25 -113.5v-488zM168 1577 h179l163 -348h-104z" />
<glyph unicode="&#xf3;" horiz-adv-x="811" d="M96 371v354q0 200 75.5 295.5t234.5 95.5q157 0 233 -96t76 -295v-354q0 -201 -75.5 -296t-233.5 -95q-159 0 -234.5 95t-75.5 296zM301 305q0 -78 25 -114.5t80 -36.5q54 0 79 36.5t25 114.5v488q0 78 -25 113.5t-79 35.5q-55 0 -80 -35.5t-25 -113.5v-488zM302 1229 l163 348h179l-238 -348h-104z" />
<glyph unicode="&#xf4;" horiz-adv-x="811" d="M96 371v354q0 200 75.5 295.5t234.5 95.5q157 0 233 -96t76 -295v-354q0 -201 -75.5 -296t-233.5 -95q-159 0 -234.5 95t-75.5 296zM301 305q0 -78 25 -114.5t80 -36.5q54 0 79 36.5t25 114.5v488q0 78 -25 113.5t-79 35.5q-55 0 -80 -35.5t-25 -113.5v-488zM168 1229 l152 348h172l152 -348h-105l-133 209l-133 -209h-105z" />
<glyph unicode="&#xf5;" horiz-adv-x="811" d="M96 371v354q0 200 75.5 295.5t234.5 95.5q157 0 233 -96t76 -295v-354q0 -201 -75.5 -296t-233.5 -95q-159 0 -234.5 95t-75.5 296zM301 305q0 -78 25 -114.5t80 -36.5q54 0 79 36.5t25 114.5v488q0 78 -25 113.5t-79 35.5q-55 0 -80 -35.5t-25 -113.5v-488zM166 1266 q16 109 54.5 164t99.5 55q15 0 32.5 -4t35.5 -11l69 -24l9 -3q18 -5 28 -5q27 0 45.5 19t26.5 56h80q-19 -115 -58 -170t-102 -55q-11 0 -24 2.5t-29 7.5l-68 23q-19 7 -29.5 9.5t-19.5 2.5q-27 0 -43.5 -16t-26.5 -51h-80z" />
<glyph unicode="&#xf6;" horiz-adv-x="811" d="M96 371v354q0 200 75.5 295.5t234.5 95.5q157 0 233 -96t76 -295v-354q0 -201 -75.5 -296t-233.5 -95q-159 0 -234.5 95t-75.5 296zM301 305q0 -78 25 -114.5t80 -36.5q54 0 79 36.5t25 114.5v488q0 78 -25 113.5t-79 35.5q-55 0 -80 -35.5t-25 -113.5v-488zM189 1278 v229h164v-229h-164zM459 1278v229h164v-229h-164z" />
<glyph unicode="&#xf7;" horiz-adv-x="1706" d="M254 541v139h1198v-139h-1198zM729 242q0 51 37 88t88 37t88 -37t37 -88q0 -52 -36.5 -88.5t-88.5 -36.5q-53 0 -89 36t-36 89zM729 979q0 52 37 89.5t88 37.5t88 -37.5t37 -89.5q0 -51 -36.5 -88t-88.5 -37t-88.5 36.5t-36.5 88.5z" />
<glyph unicode="&#xf8;" horiz-adv-x="811" d="M63 -31l80 148q-24 33 -35.5 93.5t-11.5 160.5v354q0 201 76 297t234 96q51 0 98 -13.5t84 -39.5l59 113l103 -43l-82 -152q24 -38 35.5 -100.5t11.5 -157.5v-354q0 -201 -75.5 -296t-233.5 -95q-59 0 -105 13t-82 40l-59 -109zM301 305q0 -78 25 -114.5t80 -36.5 q54 0 79 36.5t25 114.5v488q0 78 -25 113.5t-79 35.5q-55 0 -80 -35.5t-25 -113.5v-488z" />
<glyph unicode="&#xf9;" horiz-adv-x="811" d="M96 322v778h205v-787q0 -75 19 -107t63 -32q27 0 57.5 20.5t57.5 57.5v848h202v-1100h-190v135q-58 -72 -115.5 -108.5t-111.5 -36.5q-103 0 -145 71t-42 261zM168 1577h179l163 -348h-104z" />
<glyph unicode="&#xfa;" horiz-adv-x="811" d="M96 322v778h205v-787q0 -75 19 -107t63 -32q27 0 57.5 20.5t57.5 57.5v848h202v-1100h-190v135q-58 -72 -115.5 -108.5t-111.5 -36.5q-103 0 -145 71t-42 261zM302 1229l163 348h179l-238 -348h-104z" />
<glyph unicode="&#xfb;" horiz-adv-x="811" d="M96 322v778h205v-787q0 -75 19 -107t63 -32q27 0 57.5 20.5t57.5 57.5v848h202v-1100h-190v135q-58 -72 -115.5 -108.5t-111.5 -36.5q-103 0 -145 71t-42 261zM168 1229l152 348h172l152 -348h-105l-133 209l-133 -209h-105z" />
<glyph unicode="&#xfc;" horiz-adv-x="811" d="M96 322v778h205v-787q0 -75 19 -107t63 -32q27 0 57.5 20.5t57.5 57.5v848h202v-1100h-190v135q-58 -72 -115.5 -108.5t-111.5 -36.5q-103 0 -145 71t-42 261zM189 1278v229h164v-229h-164zM459 1278v229h164v-229h-164z" />
<glyph unicode="&#xfd;" horiz-adv-x="664" d="M27 1100h198l129 -922l101 922h194l-211 -1123q-36 -187 -108 -261t-211 -74q-15 0 -49 2q-11 1 -17 2v184q14 -3 27 -4.5t26 -1.5q68 0 101 44.5t33 135.5q0 60 -39 254l-2 10zM228 1229l163 348h179l-238 -348h-104z" />
<glyph unicode="&#xfe;" horiz-adv-x="803" d="M109 -344v1825h204v-482q41 58 92.5 88.5t106.5 30.5q101 0 149 -84.5t48 -263.5v-451q0 -170 -51 -252.5t-154 -82.5q-50 0 -97 28.5t-94 87.5v-444h-204zM313 227q29 -25 54.5 -38t48.5 -13q46 0 66 41t20 139v355q0 129 -17.5 173t-62.5 44q-25 0 -51.5 -14t-57.5 -44 v-643z" />
<glyph unicode="&#xff;" horiz-adv-x="664" d="M27 1100h198l129 -922l101 922h194l-211 -1123q-36 -187 -108 -261t-211 -74q-15 0 -49 2q-11 1 -17 2v184q14 -3 27 -4.5t26 -1.5q68 0 101 44.5t33 135.5q0 60 -39 254l-2 10zM115 1278v229h164v-229h-164zM385 1278v229h164v-229h-164z" />
<glyph unicode="&#x131;" horiz-adv-x="432" d="M115 0v1100h202v-1100h-202z" />
<glyph unicode="&#x152;" horiz-adv-x="1233" d="M109 500v481q0 282 83.5 404t272.5 122q32 0 68.5 -6.5t74.5 -19.5h576v-199h-369v-410h289v-202h-289v-471h404v-199h-611q-40 -13 -75.5 -20t-67.5 -7q-189 0 -272.5 122.5t-83.5 404.5zM332 383q0 -117 32 -170t101 -53t101 53t32 170v715q0 117 -32 170t-101 53 t-101 -53t-32 -170v-715z" />
<glyph unicode="&#x153;" horiz-adv-x="1204" d="M96 371v354q0 201 76 297t234 96q70 0 121 -25.5t85 -78.5q33 51 86 77.5t123 26.5q157 0 235.5 -110t78.5 -330v-166h-418v-207q0 -78 25 -114.5t79 -36.5t79.5 36.5t25.5 114.5v78h194v-64q0 -161 -81 -250t-228 -89q-65 0 -114.5 27.5t-82.5 80.5q-37 -56 -87.5 -82 t-120.5 -26q-159 0 -234.5 95t-75.5 296zM301 305q0 -78 25 -114.5t80 -36.5q54 0 79 36.5t25 114.5v488q0 78 -25 113.5t-79 35.5q-55 0 -80 -35.5t-25 -113.5v-488zM717 684h209v109q0 78 -25 113.5t-80 35.5q-54 0 -79 -35.5t-25 -113.5v-109z" />
<glyph unicode="&#x178;" horiz-adv-x="721" d="M-6 1481h229l139 -670l144 670h219l-258 -877v-604h-219v606zM143 1669v229h164v-229h-164zM413 1669v229h164v-229h-164z" />
<glyph unicode="&#x2c6;" horiz-adv-x="1024" d="M274 1229l152 348h172l152 -348h-105l-133 209l-133 -209h-105z" />
<glyph unicode="&#x2dc;" horiz-adv-x="1024" d="M272 1266q16 109 54.5 164t99.5 55q15 0 32.5 -4t35.5 -11l69 -24l9 -3q18 -5 28 -5q27 0 45.5 19t26.5 56h80q-19 -115 -58 -170t-102 -55q-11 0 -24 2.5t-29 7.5l-68 23q-19 7 -29.5 9.5t-19.5 2.5q-27 0 -43.5 -16t-26.5 -51h-80z" />
<glyph unicode="&#x2000;" horiz-adv-x="984" />
<glyph unicode="&#x2001;" horiz-adv-x="1968" />
<glyph unicode="&#x2002;" horiz-adv-x="984" />
<glyph unicode="&#x2003;" horiz-adv-x="1968" />
<glyph unicode="&#x2004;" horiz-adv-x="656" />
<glyph unicode="&#x2005;" horiz-adv-x="492" />
<glyph unicode="&#x2006;" horiz-adv-x="328" />
<glyph unicode="&#x2007;" horiz-adv-x="328" />
<glyph unicode="&#x2008;" horiz-adv-x="246" />
<glyph unicode="&#x2009;" horiz-adv-x="393" />
<glyph unicode="&#x200a;" horiz-adv-x="109" />
<glyph unicode="&#x2010;" horiz-adv-x="473" d="M29 485v177h417v-177h-417z" />
<glyph unicode="&#x2011;" horiz-adv-x="473" d="M29 485v177h417v-177h-417z" />
<glyph unicode="&#x2012;" horiz-adv-x="473" d="M29 485v177h417v-177h-417z" />
<glyph unicode="&#x2013;" horiz-adv-x="1024" d="M0 508v133h1024v-133h-1024z" />
<glyph unicode="&#x2014;" horiz-adv-x="2048" d="M0 508v133h2048v-133h-2048z" />
<glyph unicode="&#x2018;" horiz-adv-x="408" d="M92 1016v233l125 260h94l-96 -260h100v-233h-223z" />
<glyph unicode="&#x2019;" horiz-adv-x="408" d="M92 1247v234h223v-234l-125 -260h-94l97 260h-101z" />
<glyph unicode="&#x201a;" horiz-adv-x="408" d="M92 0v236h223v-236l-125 -260h-94l97 260h-101z" />
<glyph unicode="&#x201c;" horiz-adv-x="735" d="M92 1016v233l125 260h94l-96 -260h100v-233h-223zM420 1016v233l125 260h94l-96 -260h100v-233h-223z" />
<glyph unicode="&#x201d;" horiz-adv-x="735" d="M92 1247v234h223v-234l-125 -260h-94l97 260h-101zM420 1247v234h223v-234l-125 -260h-94l96 260h-100z" />
<glyph unicode="&#x201e;" horiz-adv-x="735" d="M92 0v236h223v-236l-125 -260h-94l97 260h-101zM420 0v236h223v-236l-125 -260h-94l96 260h-100z" />
<glyph unicode="&#x2022;" horiz-adv-x="1208" d="M307 762q0 123 87 209t210 86q122 0 208.5 -86.5t86.5 -208.5t-87.5 -209.5t-209.5 -87.5q-123 0 -209 87t-86 210z" />
<glyph unicode="&#x2026;" horiz-adv-x="2048" d="M229 0v236h223v-236h-223zM911 0v236h223v-236h-223zM1595 0v236h223v-236h-223z" />
<glyph unicode="&#x202f;" horiz-adv-x="393" />
<glyph unicode="&#x2039;" horiz-adv-x="465" d="M70 543l170 309h161l-168 -309l168 -312h-161z" />
<glyph unicode="&#x203a;" horiz-adv-x="465" d="M63 231l166 312l-166 309h162l170 -309l-172 -312h-160z" />
<glyph unicode="&#x205f;" horiz-adv-x="492" />
<glyph unicode="&#x2122;" horiz-adv-x="1706" d="M242 1378v80h452v-80h-172v-458h-108v458h-172zM813 920v538h150l151 -385l141 385h150v-538h-98v444l-166 -444h-56l-174 444v-444h-98z" />
<glyph unicode="&#xe000;" horiz-adv-x="1100" d="M0 1100h1100v-1100h-1100v1100z" />
<glyph unicode="&#xfb01;" horiz-adv-x="962" d="M645 0v1100h202v-1100h-202zM645 1274v207h202v-207h-202zM45 930v170h121v139q0 143 50 198.5t179 55.5h107v-166h-45q-51 0 -69.5 -23t-18.5 -92v-112h127v-170h-127v-930h-203v930h-121z" />
<glyph unicode="&#xfb02;" horiz-adv-x="962" d="M645 0v1481h202v-1481h-202zM45 930v170h121v139q0 143 50 198.5t179 55.5h107v-166h-45q-51 0 -69.5 -23t-18.5 -92v-112h127v-170h-127v-930h-203v930h-121z" />
<glyph unicode="&#xfb03;" horiz-adv-x="1492" d="M1175 0v1100h202v-1100h-202zM1175 1274v207h202v-207h-202zM575 930v170h121v139q0 143 50 198.5t179 55.5h107v-166h-45q-51 0 -69.5 -23t-18.5 -92v-112h127v-170h-127v-930h-203v930h-121zM45 930v170h121v139q0 143 50 198.5t179 55.5h107v-166h-45q-51 0 -69.5 -23 t-18.5 -92v-112h127v-170h-127v-930h-203v930h-121z" />
<glyph unicode="&#xfb04;" horiz-adv-x="1492" d="M1175 0v1481h202v-1481h-202zM575 930v170h121v139q0 143 50 198.5t179 55.5h107v-166h-45q-51 0 -69.5 -23t-18.5 -92v-112h127v-170h-127v-930h-203v930h-121zM45 930v170h121v139q0 143 50 198.5t179 55.5h107v-166h-45q-51 0 -69.5 -23t-18.5 -92v-112h127v-170h-127 v-930h-203v930h-121z" />
</font>
</defs></svg> 